Raw Taxonomy File — taxonomy_raw • arktax
…
    <tibble> of search results

    Examples

taxonomy_raw(year = 2024, taxonomy_code = "101Y00000X")
#> # A tibble: 2 × 13
#>    year version code       display_name section    grouping       classification
#>   <dbl>   <int> <chr>      <chr>        <chr>      <chr>          <chr>         
#> 1  2024       0 101Y00000X Counselor    Individual Behavioral He… Counselor     
#> 2  2024       1 101Y00000X Counselor    Individual Behavioral He… Counselor     
#> # ℹ 6 more variables: specialization <chr>, definition <chr>, notes <chr>,
#> #   modified <date>, effective <date>, deactivated <date>

taxonomy_raw(taxonomy_code = "101Y00000X")
#> # A tibble: 32 × 13
#>     year version code       display_name section grouping         classification
#>    <dbl>   <int> <chr>      <chr>        <chr>   <chr>            <chr>         
#>  1  2009       0 101Y00000X NA           NA      Behavioral Heal… Counselor     
#>  2  2009       1 101Y00000X NA           NA      Behavioral Heal… Counselor     
#>  3  2010       0 101Y00000X NA           NA      Behavioral Heal… Counselor     
#>  4  2010       1 101Y00000X NA           NA      Behavioral Heal… Counselor     
#>  5  2011       0 101Y00000X NA           NA      Behavioral Heal… Counselor     
#>  6  2011       1 101Y00000X NA           NA      Behavioral Heal… Counselor     
#>  7  2012       0 101Y00000X NA           NA      Behavioral Heal… Counselor     
#>  8  2012       1 101Y00000X NA           NA      Behavioral Heal… Counselor     
#>  9  2013       0 101Y00000X NA           NA      Behavioral Heal… Counselor     
#> 10  2013       1 101Y00000X NA           NA      Behavioral Heal… Counselor     
#> # ℹ 22 more rows
#> # ℹ 6 more variables: specialization <chr>, definition <chr>, notes <chr>,
#> #   modified <date>, effective <date>, deactivated <date>
…
